{
  "type": "geojson",
  "data": {
    "type": "FeatureCollection",
    "features": [
      {
        "geometry": {
          "coordinates": [
            [
              [
                174.780728,
                -41.299604
              ],
              [
                174.783779,
                -41.293996
              ],
              [
                174.784196,
                -41.293328
              ],
              [
                174.786521,
                -41.291593
              ],
              [
                174.786236,
                -41.291337
              ],
              [
                174.785911,
                -41.290513
              ],
              [
                174.783875,
                -41.29056
              ],
              [
                174.783371,
                -41.289457
              ],
              [
                174.780437,
                -41.289664
              ],
              [
                174.780162,
                -41.288148
              ],
              [
                174.779474,
                -41.287804
              ],
              [
                174.779153,
                -41.28615
              ],
              [
                174.77952,
                -41.28584
              ],
              [
                174.77952,
                -41.28491
              ],
              [
                174.780253,
                -41.284807
              ],
              [
                174.780207,
                -41.284428
              ],
              [
                174.779291,
                -41.284566
              ],
              [
                174.779199,
                -41.283705
              ],
              [
                174.779428,
                -41.282912
              ],
              [
                174.778741,
                -41.282637
              ],
              [
                174.780712,
                -41.28026
              ],
              [
                174.778282,
                -41.278434
              ],
              [
                174.775532,
                -41.278572
              ],
              [
                174.773423,
                -41.285978
              ],
              [
                174.768976,
                -41.29459
              ],
              [
                174.771177,
                -41.295381
              ],
              [
                174.770535,
                -41.296552
              ],
              [
                174.774615,
                -41.298068
              ],
              [
                174.778466,
                -41.298998
              ],
              [
                174.780728,
                -41.299604
              ]
            ]
          ],
          "type": "Polygon"
        },
        "type": "Feature",
        "properties": {
          "id": "Te Aro"
        }
      },
      {
        "geometry": {
          "coordinates": [
            [
              [
                174.786556,
                -41.291595
              ],
              [
                174.788016,
                -41.291652
              ],
              [
                174.788534,
                -41.292242
              ],
              [
                174.789124,
                -41.291892
              ],
              [
                174.790412,
                -41.29157
              ],
              [
                174.790971,
                -41.292277
              ],
              [
                174.788667,
                -41.293807
              ],
              [
                174.789177,
                -41.294597
              ],
              [
                174.790605,
                -41.295072
              ],
              [
                174.787731,
                -41.300193
              ],
              [
                174.786465,
                -41.302471
              ],
              [
                174.785221,
                -41.301969
              ],
              [
                174.782952,
                -41.301206
              ],
              [
                174.782432,
                -41.300849
              ],
              [
                174.78188,
                -41.30002
              ],
              [
                174.780722,
                -41.299619
              ],
              [
                174.783753,
                -41.294034
              ],
              [
                174.784197,
                -41.29333
              ],
              [
                174.784676,
                -41.292964
              ],
              [
                174.786409,
                -41.291673
              ],
              [
                174.786556,
                -41.291595
              ]
            ]
          ],
          "type": "Polygon"
        },
        "type": "Feature",
        "properties": {"id": "Mount Victoria"}
      },
      {
        "geometry": {
          "coordinates": [
            [
              [
                174.778472,
                -41.299014
              ],
              [
                174.780728,
                -41.29961
              ],
              [
                174.781882,
                -41.30002
              ],
              [
                174.782432,
                -41.300863
              ],
              [
                174.782947,
                -41.301215
              ],
              [
                174.782388,
                -41.302072
              ],
              [
                174.780761,
                -41.301566
              ],
              [
                174.779524,
                -41.30618
              ],
              [
                174.780074,
                -41.306559
              ],
              [
                174.779982,
                -41.307489
              ],
              [
                174.782183,
                -41.307661
              ],
              [
                174.783558,
                -41.309314
              ],
              [
                174.785346,
                -41.30897
              ],
              [
                174.785025,
                -41.307902
              ],
              [
                174.785667,
                -41.307695
              ],
              [
                174.785712,
                -41.308109
              ],
              [
                174.786492,
                -41.308109
              ],
              [174.787592, -41.312],
              [
                174.789072,
                -41.312305
              ],
              [
                174.789211,
                -41.313229
              ],
              [
                174.790789,
                -41.314389
              ],
              [
                174.79055,
                -41.314688
              ],
              [
                174.787271,
                -41.316648
              ],
              [
                174.787179,
                -41.317406
              ],
              [
                174.787225,
                -41.318266
              ],
              [
                174.786308,
                -41.318542
              ],
              [
                174.786217,
                -41.319058
              ],
              [
                174.785392,
                -41.319299
              ],
              [
                174.785071,
                -41.319678
              ],
              [
                174.781724,
                -41.319781
              ],
              [
                174.780696,
                -41.316762
              ],
              [
                174.779001,
                -41.316714
              ],
              [
                174.777423,
                -41.316876
              ],
              [
                174.777553,
                -41.315512
              ],
              [
                174.774559,
                -41.314593
              ],
              [
                174.775031,
                -41.312757
              ],
              [
                174.773931,
                -41.312482
              ],
              [
                174.774985,
                -41.308866
              ],
              [
                174.776223,
                -41.30773
              ],
              [
                174.776865,
                -41.307179
              ],
              [
                174.777553,
                -41.307179
              ],
              [
                174.779281,
                -41.300833
              ],
              [
                174.778472,
                -41.299014
              ]
            ]
          ],
          "type": "Polygon"
        },
        "type": "Feature",
        "properties": {"id": "Newtown"}
      },
      {
        "geometry": {
          "coordinates": [
            [
              [
                174.774959,
                -41.308887
              ],
              [
                174.772767,
                -41.308684
              ],
              [
                174.772668,
                -41.307383
              ],
              [
                174.772873,
                -41.305705
              ],
              [
                174.773079,
                -41.304543
              ],
              [
                174.771366,
                -41.303975
              ],
              [
                174.771068,
                -41.304534
              ],
              [
                174.770636,
                -41.304361
              ],
              [
                174.770828,
                -41.303991
              ],
              [
                174.770458,
                -41.303741
              ],
              [
                174.771162,
                -41.30254
              ],
              [
                174.770859,
                -41.301831
              ],
              [
                174.77094,
                -41.300556
              ],
              [
                174.770239,
                -41.300398
              ],
              [
                174.769509,
                -41.299513
              ],
              [
                174.77009,
                -41.297227
              ],
              [
                174.770548,
                -41.296559
              ],
              [
                174.77461,
                -41.298061
              ],
              [
                174.778471,
                -41.299005
              ],
              [
                174.779284,
                -41.300819
              ],
              [
                174.777551,
                -41.307179
              ],
              [
                174.776861,
                -41.307177
              ],
              [
                174.774959,
                -41.308887
              ]
            ]
          ],
          "type": "Polygon"
        },
        "type": "Feature",
        "properties": {"id": "Mount Cook"}
      },
      {
        "geometry": {
          "coordinates": [
            [
              [
                174.774552,
                -41.314593
              ],
              [
                174.774327,
                -41.315372
              ],
              [
                174.775264,
                -41.315985
              ],
              [
                174.775289,
                -41.318004
              ],
              [
                174.774394,
                -41.318063
              ],
              [
                174.774046,
                -41.318367
              ],
              [
                174.773956,
                -41.31919
              ],
              [
                174.77272,
                -41.319338
              ],
              [
                174.772511,
                -41.322438
              ],
              [
                174.778403,
                -41.322636
              ],
              [174.778442, -41.321],
              [
                174.780437,
                -41.321027
              ],
              [
                174.781721,
                -41.319779
              ],
              [
                174.78069,
                -41.316766
              ],
              [
                174.779016,
                -41.316716
              ],
              [
                174.777408,
                -41.316882
              ],
              [
                174.777567,
                -41.315518
              ],
              [
                174.774552,
                -41.314593
              ]
            ]
          ],
          "type": "Polygon"
        },
        "type": "Feature",
        "properties": {"id": "Berhampore"}
      }
    ]
  }
}
